{
  "Information": {
    "pic": 0,
    "description": 0,
    "command": 0,
    "icon": 1,
    "childs": {
      "article": {
        "pic": 1,
        "description": 1,
        "command": 0,
        "icon": 0,
        "print": 1,
        "preview": 1,
        "video":1
      }
    }
  },
  "Information (with sub menu)": {
    "pic": 0,
    "description": 0,
    "command": 0,
    "icon": 1,
    "childs": {
      "section": {
        "pic": 0,
        "description": 0,
        "command": 0,
        "icon": 1
      },
      "article": {
        "pic": 1,
        "description": 1,
        "command": 0,
        "icon": 0,
        "print": 1,
        "preview": 1,
        "video":1
      }
    }
  },
  "Information (with top sub menu)": {
    "pic": 0,
    "description": 0,
    "command": 0,
    "icon": 1,
    "option": 1,
    "childs": {
      "section": {
        "pic": 1,
        "description": 0,
        "command": 0,
        "icon": 0,
        "startTime": 1,
        "endTime": 1
      },
      "article": {
        "pic": 1,
        "description": 0,
        "command": 0,
        "icon": 0,
        "preview": 0,
        "canOrder": 1
      },
      "item": {
        "pic": 0,
        "description": 1,
        "command": 0,
        "icon": 0,
        "preview": 1,
        "Price": 1,
        "maxQuantity": 1,
        "optionSets": 1,
        "canOrder": 1
      },
      "sub_item": {
        "pic": 0,
        "description": 1,
        "command": 0,
        "icon": 0,
        "preview": 1,
        "Price": 1,
        "maxQuantity": 1,
        "optionSets": 1,
        "canOrder": 1
      }
    }
  },
  "OptionSets": {
    "pic": 0,
    "description": 0,
    "command": 0,
    "icon": 0,
    "option": 0,
    "childs": {
      "optionset": {
        "pic": 0,
        "description": 0,
        "command": 0,
        "icon": 0,
        "minChoice": 1,
        "maxChoice": 1,
        "complexFood": 1
      },
      "choice": {
        "pic": 0,
        "description": 0,
        "command": 0,
        "icon": 0,
        "preview": 0,
        "price": 1,
        "maxChoice": 1,
        "noChild": 1
      }
    }
  },
  "Guest request": {
    "pic": 0,
    "description": 0,
    "command": 0,
    "icon": 1,
    "childs": {
      "section": {
        "pic": 0,
        "description": 0,
        "command": 1,
        "icon": 0
      },
      "service": {
        "pic": 0,
        "description": 0,
        "command": 1,
        "icon": 0
      }
    }
  },
  "Spa/Restaurant": {
    "pic": 1,
    "description": 1,
    "command": 0,
    "icon": 1,
    "childs": {
      "section": {
        "pic": 0,
        "description": 0,
        "command": 0,
        "icon": 0
      },
      "article": {
        "pic": 0,
        "description": 1,
        "shortDescription": 1,
        "command": 0,
        "icon": 0,
        "print": 0,
        "preview": 0
      }
    }
  },
  "Restaurant": {
    "pic": 1,
    "description": 1,
    "command": 0,
    "icon": 1,
    "childs": {
      "section": {
        "pic": 0,
        "description": 0,
        "command": 0,
        "icon": 0
      },
      "article": {
        "pic": 0,
        "description": 1,
        "shortDescription": 1,
        "command": 0,
        "icon": 0,
        "print": 0,
        "preview": 0
      }
    }
  },
  "Web": {
    "pic": 0,
    "description": 0,
    "command": 1,
    "icon": 1,
    "childs": {
      "section": {
        "pic": 0,
        "description": 0,
        "command": 0,
        "icon": 0
      },
      "article": {
        "pic": 0,
        "description": 1,
        "shortDescription": 1,
        "command": 0,
        "icon": 0,
        "print": 0,
        "preview": 0
      }
    }
  }
  ,
  "Earth TV": {
    "pic": 0,
    "description": 0,
    "command": 0,
    "icon": 1,
    "childs": {
      "article": {
        "pic": 0,
        "description": 0,
        "command": 1,
        "icon": 0,
        "print": 0,
        "preview": 0
      }
    }
  }
}